{
  "parsers": [
    {
      "name": "dtexec_ok",
      "regex": "/.*DTSER_SUCCESS \\(0\\).*/[OK]/",
      "multilined": false
    },
    {
      "name": "dtexec_failed",
      "regex": "/.*DTSER_FAILURE \\(([0-9]+)\\).*/[Err: $1]/",
      "multilined": false
    }
  ],
  "formatters": [
    {
      "name": "gitlab",
      "OK": "{{task.name}}: [OK]",
      "Failure": "{{task.name}}: [Err]\n{{explanation}}"
    }
  ]
}
